Taxa	scale	55x55	20x20	LG	LGexp	LGbyfreq-exp55x55freqs	LGplusF
4	0.1	1	0	0	0	0	0
4	0.2	1	0	0	0	0	0
4	0.5	1	0	0	0	0	0
4	0.7	1	0	0	0	0	0
4	1.2	1	0	0	0	0	0
4	1.5	0	0	0	0	0	0
4	1.7	0	0	0	0	0	0
4	2.0	0	0	0	0	0	0
4	2.5	0	0	0	0	0	0
4	3.0	0	0	0	0	0	0
8	0.1	1	0	0	0	0	0
8	0.2	1	0	0	0	0	0
8	0.5	1	0	0	0	0	0
8	0.7	1	0	0	0	0	0
8	1.2	0	0	0	0	0	0
8	1.5	0	0	0	0	0	0
8	1.7	0	0	0	0	0	0
8	2.0	0	0	0	0	0	0
8	2.5	0	0	0	0	0	0
8	3.0	0	0	0	0	0	0
16	0.1	1	0	0	0	0	0
16	0.2	1	0	0	0	0	0
16	0.5	1	0	0	0	0	0
16	0.7	1	0	0	0	0	0
16	1.2	1	0	0	0	0	0
16	1.5	1	0	0	0	0	0
16	1.7	0	0	0	0	0	0
16	2.0	0	0	0	0	0	0
16	2.5	0	0	0	0	0	0
16	3.0	0	0	0	0	0	0
32	0.1	1	0	0	0	0	0
32	0.2	1	0	0	0	0	0
32	0.5	1	0	0	0	0	0
32	0.7	1	0	0	0	0	0
32	1.2	1	0	0	0	0	0
32	1.5	1	0	0	0	0	0
32	1.7	1	0	0	0	0	0
32	2.0	1	0	0	0	0	0
32	2.5	1	0	0	0	0	0
32	3.0	0	0	0	0	0	0
64	0.1	1	0	0	0	0	0
64	0.2	1	0	0	0	0	0
64	0.5	1	0	0	0	0	0
64	0.7	1	0	0	0	0	0
64	1.2	1	0	0	0	0	0
64	1.5	1	0	0	0	0	0
64	1.7	1	0	0	0	0	0
64	2.0	1	0	0	0	0	0
64	2.5	1	0	0	0	0	0
64	3.0	1	0	0	0	0	0
